{
    "database": {
        "dbname": "mediahaven_data",
        "user": "postgres",
        "password": "@rchive",
        "host": "stage.mediahaven.com",
        "port": "1433"
    },
    "parameters": {
        "endpoint": "stage.mediahaven.com",
        "username": "zeticon@stage",
        "password": "zeti",
        "client_id": "TLXmL9G5BJCtdN2l0kfVpb6yfNltWGdR",
        "client_secret": "wKa82vFA2yi5hVOxn8jDhcssBmK4vJyx"
    }
}